\relax 
\providecommand\hyper@newdestlabel[2]{}
\@writefile{toc}{\contentsline {section}{\numberline {1}Bose-Einstein condensates}{3}{section.1}}
\@writefile{toc}{\contentsline {subsection}{\numberline {1.1}Bose-Einstein condensation}{3}{subsection.1.1}}
\@writefile{toc}{\contentsline {subsection}{\numberline {1.2}The Gross-Pitaevskii Equation}{3}{subsection.1.2}}
\@writefile{toc}{\contentsline {subsubsection}{\numberline {1.2.1}Theory}{3}{subsubsection.1.2.1}}
\@writefile{toc}{\contentsline {subsubsection}{\numberline {1.2.2}Quasi-2D GPE}{4}{subsubsection.1.2.2}}
\@writefile{toc}{\contentsline {subsection}{\numberline {1.3}Vortices in Bose-Einstein condensates}{5}{subsection.1.3}}
\@writefile{toc}{\contentsline {subsubsection}{\numberline {1.3.1}Vortex in a harmonically trapped BEC}{5}{subsubsection.1.3.1}}
\@writefile{toc}{\contentsline {subsubsection}{\numberline {1.3.2}Methods for creation of a vortex in the condensate}{6}{subsubsection.1.3.2}}
\@setckpt{part1}{
\setcounter{page}{7}
\setcounter{equation}{11}
\setcounter{enumi}{0}
\setcounter{enumii}{0}
\setcounter{enumiii}{0}
\setcounter{enumiv}{0}
\setcounter{footnote}{0}
\setcounter{mpfootnote}{0}
\setcounter{part}{0}
\setcounter{section}{1}
\setcounter{subsection}{3}
\setcounter{subsubsection}{2}
\setcounter{paragraph}{0}
\setcounter{subparagraph}{0}
\setcounter{figure}{0}
\setcounter{table}{0}
\setcounter{Item}{0}
\setcounter{Hfootnote}{0}
\setcounter{bookmark@seq@number}{9}
\setcounter{vrcnt}{0}
\setcounter{float@type}{4}
\setcounter{section@level}{3}
}
