\relax 
\providecommand\hyper@newdestlabel[2]{}
\@writefile{toc}{\contentsline {section}{\numberline {3}Results}{11}{section.3}}
\@writefile{toc}{\contentsline {subsection}{\numberline {3.1}Early stages}{11}{subsection.3.1}}
\@writefile{lof}{\contentsline {figure}{\numberline {1}{\ignorespaces Plot of theoretical and numerical wavefunction for the groundstate + harmonical trap in 1D, slip step method}}{11}{figure.1}}
\@writefile{lof}{\contentsline {figure}{\numberline {2}{\ignorespaces Plot of numerical wavefunction for the groundstate harmonically trapped in 2D, slip step method}}{11}{figure.2}}
\@writefile{toc}{\contentsline {subsection}{\numberline {3.2}Vortex results}{12}{subsection.3.2}}
\@writefile{toc}{\contentsline {subsubsection}{\numberline {3.2.1}General results}{12}{subsubsection.3.2.1}}
\@writefile{lof}{\contentsline {figure}{\numberline {3}{\ignorespaces Specter, time evolution and animation of a vortex in 2D; $\eta =1, x_{shift}=0.5, a=1$}}{12}{figure.3}}
\@writefile{toc}{\contentsline {subsubsection}{\numberline {3.2.2}Precession pulsation}{12}{subsubsection.3.2.2}}
\@writefile{lof}{\contentsline {figure}{\numberline {4}{\ignorespaces $\omega _{V}=f(x_{shift})$ and fitting solution}}{13}{figure.4}}
\@writefile{lof}{\contentsline {figure}{\numberline {5}{\ignorespaces Specter and time evolution (30000 periods) of a vortex in 2D; $\eta =20, x_{shift}=1, a=1$}}{13}{figure.5}}
\@writefile{lof}{\contentsline {figure}{\numberline {6}{\ignorespaces Time evolution (300000 periods) of a vortex in 2D; $\eta =20, x_{shift}=1, a=1$}}{14}{figure.6}}
\@writefile{toc}{\contentsline {subsubsection}{\numberline {3.2.3}Limit cases}{15}{subsubsection.3.2.3}}
\@writefile{lof}{\contentsline {figure}{\numberline {7}{\ignorespaces Limit case of xshift=2 at different times}}{15}{figure.7}}
\@writefile{lof}{\contentsline {figure}{\numberline {8}{\ignorespaces Limit case of $a<1$}}{15}{figure.8}}
\@setckpt{part3}{
\setcounter{page}{16}
\setcounter{equation}{26}
\setcounter{enumi}{0}
\setcounter{enumii}{0}
\setcounter{enumiii}{0}
\setcounter{enumiv}{0}
\setcounter{footnote}{0}
\setcounter{mpfootnote}{0}
\setcounter{part}{0}
\setcounter{section}{3}
\setcounter{subsection}{2}
\setcounter{subsubsection}{3}
\setcounter{paragraph}{0}
\setcounter{subparagraph}{0}
\setcounter{figure}{8}
\setcounter{table}{0}
\setcounter{Item}{0}
\setcounter{Hfootnote}{0}
\setcounter{bookmark@seq@number}{22}
\setcounter{vrcnt}{0}
\setcounter{float@type}{4}
\setcounter{section@level}{3}
}
