\relax 
\providecommand\hyper@newdestlabel[2]{}
\@writefile{toc}{\contentsline {section}{\numberline {2}Numerical approach}{7}{section.2}}
\newlabel{p2}{{2}{7}{Numerical approach}{section.2}{}}
\@writefile{toc}{\contentsline {subsection}{\numberline {2.1}The dimensionless GPE}{7}{subsection.2.1}}
\@writefile{toc}{\contentsline {subsection}{\numberline {2.2}Integration of the GPE}{7}{subsection.2.2}}
\@writefile{toc}{\contentsline {subsubsection}{\numberline {2.2.1}Crank-Nicholson method}{7}{subsubsection.2.2.1}}
\@writefile{toc}{\contentsline {subsubsection}{\numberline {2.2.2}Slip step method}{8}{subsubsection.2.2.2}}
\@writefile{toc}{\contentsline {subsection}{\numberline {2.3}Finding the ground state: Imaginary time propagation}{9}{subsection.2.3}}
\@writefile{toc}{\contentsline {subsection}{\numberline {2.4}Adding a vortex}{10}{subsection.2.4}}
\@setckpt{part2}{
\setcounter{page}{11}
\setcounter{equation}{25}
\setcounter{enumi}{0}
\setcounter{enumii}{0}
\setcounter{enumiii}{0}
\setcounter{enumiv}{0}
\setcounter{footnote}{0}
\setcounter{mpfootnote}{0}
\setcounter{part}{0}
\setcounter{section}{2}
\setcounter{subsection}{4}
\setcounter{subsubsection}{0}
\setcounter{paragraph}{0}
\setcounter{subparagraph}{0}
\setcounter{figure}{0}
\setcounter{table}{0}
\setcounter{Item}{0}
\setcounter{Hfootnote}{0}
\setcounter{bookmark@seq@number}{16}
\setcounter{vrcnt}{0}
\setcounter{float@type}{4}
\setcounter{section@level}{2}
}
