the precession pulsation for eta = -20 xshift = 0.5 a =0.1 is :152.183984128
the precession pulsation for eta = -20 xshift = 0.5 a =0.5 is :152.183984128
the precession pulsation for eta = -20 xshift = 0.5 a =1 is :122.52211349
the precession pulsation for eta = -20 xshift = 0.5 a =2 is :122.52211349
the precession pulsation for eta = -20 xshift = 0.5 a =5 is :-122.52211349
the precession pulsation for eta = -20 xshift = 0.5 a =10 is :-122.52211349
the precession pulsation for eta = -20 xshift = 1 a =0.1 is :141.476389167
the precession pulsation for eta = -20 xshift = 1 a =0.5 is :141.476389167
the precession pulsation for eta = -20 xshift = 1 a =1 is :141.476389167
the precession pulsation for eta = -20 xshift = 1 a =2 is :-141.502569105
the precession pulsation for eta = -20 xshift = 1 a =5 is :141.502569105
the precession pulsation for eta = -20 xshift = 1 a =10 is :-141.502569105
the precession pulsation for eta = -20 xshift = 2 a =0.1 is :141.476389167
the precession pulsation for eta = -20 xshift = 2 a =0.5 is :141.476389167
the precession pulsation for eta = -20 xshift = 2 a =1 is :141.476389167
the precession pulsation for eta = -20 xshift = 2 a =2 is :141.476389167
the precession pulsation for eta = -20 xshift = 2 a =5 is :141.476389167
the precession pulsation for eta = -20 xshift = 2 a =10 is :141.476389167
the precession pulsation for eta = -5 xshift = 0.5 a =0.1 is :1.80641577581
the precession pulsation for eta = -5 xshift = 0.5 a =0.5 is :1.51843644924
the precession pulsation for eta = -5 xshift = 0.5 a =1 is :1.54461638801
the precession pulsation for eta = -5 xshift = 0.5 a =2 is :1.57079632679
the precession pulsation for eta = -5 xshift = 0.5 a =5 is :0.890117918517
the precession pulsation for eta = -5 xshift = 0.5 a =10 is :0.890117918517
the precession pulsation for eta = -5 xshift = 1 a =0.1 is :1.78023583703
the precession pulsation for eta = -5 xshift = 1 a =0.5 is :-1.80641577581
the precession pulsation for eta = -5 xshift = 1 a =1 is :1.80641577581
the precession pulsation for eta = -5 xshift = 1 a =2 is :0.890117918517
the precession pulsation for eta = -5 xshift = 1 a =5 is :0.890117918517
the precession pulsation for eta = -5 xshift = 1 a =10 is :0.890117918517
the precession pulsation for eta = -5 xshift = 2 a =0.1 is :1.80641577581
the precession pulsation for eta = -5 xshift = 2 a =0.5 is :1.80641577581
the precession pulsation for eta = -5 xshift = 2 a =1 is :1.80641577581
the precession pulsation for eta = -5 xshift = 2 a =2 is :1.80641577581
the precession pulsation for eta = -5 xshift = 2 a =5 is :1.80641577581
the precession pulsation for eta = -5 xshift = 2 a =10 is :0.890117918517
the precession pulsation for eta = -2 xshift = 0.5 a =0.1 is :0.968657734857
the precession pulsation for eta = -2 xshift = 0.5 a =0.5 is :0.968657734857
the precession pulsation for eta = -2 xshift = 0.5 a =1 is :0.968657734857
the precession pulsation for eta = -2 xshift = 0.5 a =2 is :0.968657734857
the precession pulsation for eta = -2 xshift = 0.5 a =5 is :0.837758040957
the precession pulsation for eta = -2 xshift = 0.5 a =10 is :0.837758040957
the precession pulsation for eta = -2 xshift = 1 a =0.1 is :0.890117918517
the precession pulsation for eta = -2 xshift = 1 a =0.5 is :0.890117918517
the precession pulsation for eta = -2 xshift = 1 a =1 is :0.890117918517
the precession pulsation for eta = -2 xshift = 1 a =2 is :0.890117918517
the precession pulsation for eta = -2 xshift = 1 a =5 is :0.890117918517
the precession pulsation for eta = -2 xshift = 1 a =10 is :0.890117918517
the precession pulsation for eta = -2 xshift = 2 a =0.1 is :0.890117918517
the precession pulsation for eta = -2 xshift = 2 a =0.5 is :0.890117918517
the precession pulsation for eta = -2 xshift = 2 a =1 is :0.890117918517
the precession pulsation for eta = -2 xshift = 2 a =2 is :0.890117918517
the precession pulsation for eta = -2 xshift = 2 a =5 is :0.890117918517
the precession pulsation for eta = -2 xshift = 2 a =10 is :0.890117918517
the precession pulsation for eta = -1 xshift = 0.5 a =0.1 is :0.942477796077
the precession pulsation for eta = -1 xshift = 0.5 a =0.5 is :0.942477796077
the precession pulsation for eta = -1 xshift = 0.5 a =1 is :0.942477796077
the precession pulsation for eta = -1 xshift = 0.5 a =2 is :0.942477796077
the precession pulsation for eta = -1 xshift = 0.5 a =5 is :0.942477796077
the precession pulsation for eta = -1 xshift = 0.5 a =10 is :0.942477796077
the precession pulsation for eta = -1 xshift = 1 a =0.1 is :0.916297857297
the precession pulsation for eta = -1 xshift = 1 a =0.5 is :0.916297857297
the precession pulsation for eta = -1 xshift = 1 a =1 is :0.890117918517
the precession pulsation for eta = -1 xshift = 1 a =2 is :0.890117918517
the precession pulsation for eta = -1 xshift = 1 a =5 is :0.890117918517
the precession pulsation for eta = -1 xshift = 1 a =10 is :0.890117918517
the precession pulsation for eta = -1 xshift = 2 a =0.1 is :0.890117918517
the precession pulsation for eta = -1 xshift = 2 a =0.5 is :0.890117918517
the precession pulsation for eta = -1 xshift = 2 a =1 is :0.890117918517
the precession pulsation for eta = -1 xshift = 2 a =2 is :0.890117918517
the precession pulsation for eta = -1 xshift = 2 a =5 is :0.890117918517
the precession pulsation for eta = -1 xshift = 2 a =10 is :0.890117918517
the precession pulsation for eta = 1 xshift = 0.5 a =0.1 is :0.863937979737
the precession pulsation for eta = 1 xshift = 0.5 a =0.5 is :0.863937979737
the precession pulsation for eta = 1 xshift = 0.5 a =1 is :0.863937979737
the precession pulsation for eta = 1 xshift = 0.5 a =2 is :0.863937979737
the precession pulsation for eta = 1 xshift = 0.5 a =5 is :0.863937979737
the precession pulsation for eta = 1 xshift = 0.5 a =10 is :0.863937979737
the precession pulsation for eta = 1 xshift = 1 a =0.1 is :0.890117918517
the precession pulsation for eta = 1 xshift = 1 a =0.5 is :0.890117918517
the precession pulsation for eta = 1 xshift = 1 a =1 is :0.890117918517
the precession pulsation for eta = 1 xshift = 1 a =2 is :0.890117918517
the precession pulsation for eta = 1 xshift = 1 a =5 is :0.890117918517
the precession pulsation for eta = 1 xshift = 1 a =10 is :0.890117918517
the precession pulsation for eta = 1 xshift = 2 a =0.1 is :0.890117918517
the precession pulsation for eta = 1 xshift = 2 a =0.5 is :0.890117918517
the precession pulsation for eta = 1 xshift = 2 a =1 is :0.890117918517
the precession pulsation for eta = 1 xshift = 2 a =2 is :0.890117918517
the precession pulsation for eta = 1 xshift = 2 a =5 is :0.890117918517
the precession pulsation for eta = 1 xshift = 2 a =10 is :0.890117918517
the precession pulsation for eta = 2 xshift = 0.5 a =0.1 is :0.837758040957
the precession pulsation for eta = 2 xshift = 0.5 a =0.5 is :0.837758040957
the precession pulsation for eta = 2 xshift = 0.5 a =1 is :0.837758040957
the precession pulsation for eta = 2 xshift = 0.5 a =2 is :0.837758040957
the precession pulsation for eta = 2 xshift = 0.5 a =5 is :0.863937979737
the precession pulsation for eta = 2 xshift = 0.5 a =10 is :0.863937979737
the precession pulsation for eta = 2 xshift = 1 a =0.1 is :0.890117918517
the precession pulsation for eta = 2 xshift = 1 a =0.5 is :0.916297857297
the precession pulsation for eta = 2 xshift = 1 a =1 is :0.916297857297
the precession pulsation for eta = 2 xshift = 1 a =2 is :0.916297857297
the precession pulsation for eta = 2 xshift = 1 a =5 is :0.916297857297
the precession pulsation for eta = 2 xshift = 1 a =10 is :0.916297857297
the precession pulsation for eta = 2 xshift = 2 a =0.1 is :0.916297857297
the precession pulsation for eta = 2 xshift = 2 a =0.5 is :0.916297857297
the precession pulsation for eta = 2 xshift = 2 a =1 is :0.916297857297
the precession pulsation for eta = 2 xshift = 2 a =2 is :0.916297857297
the precession pulsation for eta = 2 xshift = 2 a =5 is :0.916297857297
the precession pulsation for eta = 2 xshift = 2 a =10 is :0.916297857297
the precession pulsation for eta = 5 xshift = 0.5 a =0.1 is :0.759218224618
the precession pulsation for eta = 5 xshift = 0.5 a =0.5 is :0.759218224618
the precession pulsation for eta = 5 xshift = 0.5 a =1 is :0.759218224618
the precession pulsation for eta = 5 xshift = 0.5 a =2 is :0.759218224618
the precession pulsation for eta = 5 xshift = 0.5 a =5 is :0.759218224618
the precession pulsation for eta = 5 xshift = 0.5 a =10 is :0.759218224618
the precession pulsation for eta = 5 xshift = 1 a =0.1 is :0.759218224618
the precession pulsation for eta = 5 xshift = 1 a =0.5 is :0.942477796077
the precession pulsation for eta = 5 xshift = 1 a =1 is :0.942477796077
the precession pulsation for eta = 5 xshift = 1 a =2 is :0.916297857297
the precession pulsation for eta = 5 xshift = 1 a =5 is :0.916297857297
the precession pulsation for eta = 5 xshift = 1 a =10 is :0.916297857297
the precession pulsation for eta = 5 xshift = 2 a =0.1 is :0.916297857297
the precession pulsation for eta = 5 xshift = 2 a =0.5 is :0.916297857297
the precession pulsation for eta = 5 xshift = 2 a =1 is :0.916297857297
the precession pulsation for eta = 5 xshift = 2 a =2 is :0.890117918517
the precession pulsation for eta = 5 xshift = 2 a =5 is :0.890117918517
the precession pulsation for eta = 5 xshift = 2 a =10 is :0.890117918517
the precession pulsation for eta = 20 xshift = 0.5 a =0.1 is :0.549778714378
the precession pulsation for eta = 20 xshift = 0.5 a =0.5 is :0.549778714378
the precession pulsation for eta = 20 xshift = 0.5 a =1 is :0.549778714378
the precession pulsation for eta = 20 xshift = 0.5 a =2 is :-0.549778714378
the precession pulsation for eta = 20 xshift = 0.5 a =5 is :-0.523598775598
the precession pulsation for eta = 20 xshift = 0.5 a =10 is :0.340339204139
the precession pulsation for eta = 20 xshift = 1 a =0.1 is :0.575958653158
the precession pulsation for eta = 20 xshift = 1 a =0.5 is :0.575958653158
the precession pulsation for eta = 20 xshift = 1 a =1 is :0.602138591938
the precession pulsation for eta = 20 xshift = 1 a =2 is :0.890117918517
the precession pulsation for eta = 20 xshift = 1 a =5 is :0.890117918517
the precession pulsation for eta = 20 xshift = 1 a =10 is :0.890117918517
the precession pulsation for eta = 20 xshift = 2 a =0.1 is :0.890117918517
the precession pulsation for eta = 20 xshift = 2 a =0.5 is :0.890117918517
the precession pulsation for eta = 20 xshift = 2 a =1 is :0.890117918517
the precession pulsation for eta = 20 xshift = 2 a =2 is :0.890117918517
the precession pulsation for eta = 20 xshift = 2 a =5 is :0.890117918517
the precession pulsation for eta = 20 xshift = 2 a =10 is :0.890117918517
